Liempieza de datos
…
temp<-text_df %>%
  unnest_tokens(word, text, token = "ngrams")
length(temp$line)

## [1] 73

temp

## # A tibble: 73 x 2
##     line word                   
##    <int> <chr>                  
##  1     1 todos somos aficionados
##  2     1 somos aficionados la   
##  3     1 aficionados la vida    
##  4     1 la vida es             
##  5     1 vida es tan            
##  6     1 es tan corta           
##  7     1 tan corta que          
##  8     1 corta que no           
##  9     1 que no da              
## 10     1 no da para             
## # ... with 63 more rows
…
countWord<-tokens %>% count(word,sort = TRUE)

wordcloud2(countWord)

Ver correlacin de palabras

Calculemos los bigramas (contar aparicin de dos palabras seguidas)

bigram_text <- text_df%>%
  unnest_tokens(bigram, text, token = "ngrams", n = 2)

bigram_text

## # A tibble: 78 x 2
##     line bigram           
##    <int> <chr>            
##  1     1 todos somos      
##  2     1 somos aficionados
##  3     1 aficionados la   
##  4     1 la vida          
##  5     1 vida es          
##  6     1 es tan           
##  7     1 tan corta        
##  8     1 corta que        
##  9     1 que no           
## 10     1 no da            
## # ... with 68 more rows

Separemos la columna bigram en dos columnas 

bigram_count<-bigram_text %>%  count(bigram, sort = TRUE)
bigram_count

## # A tibble: 72 x 2
##    bigram             n
##    <chr>          <int>
##  1 la vida            3
##  2 como si            2
##  3 con las            2
##  4 fuese un           2
##  5 un milagro         2
##  6 aficionados la     1
##  7 agarras el         1
##  8 amas la            1
##  9 con qu            1
## 10 corta que          1
## # ... with 62 more rows
…
tokens %>% filter(!word %in% myStopwords) %>% count(word,sort = TRUE) %>% wordcloud2()

Podemos usar tambin la base que trae tidytext de stop_words

sw<-get_stopwords("es", "snowball")
sw

## # A tibble: 308 x 2
##    word  lexicon 
##    <chr> <chr>   
##  1 de    snowball
##  2 la    snowball
##  3 que   snowball
##  4 el    snowball
##  5 en    snowball
##  6 y     snowball
##  7 a     snowball
##  8 los   snowball
##  9 del   snowball
## 10 se    snowball
## # ... with 298 more rows
…
total_words <- book_words %>% 
  group_by(book) %>% 
  summarize(total = sum(n))

book_words <- left_join(book_words, total_words)

## Joining, by = "book"

La funcin bind_tf_idf permite hacer el clculo de tf, idf y una combinacin de los dos 

book_words <- book_words %>%
  bind_tf_idf(word, book, n)
book_words

## # A tibble: 40,379 x 7
##    book              word      n  total     tf   idf tf_idf
##    <fct>             <chr> <int>  <int>  <dbl> <dbl>  <dbl>
##  1 Mansfield Park    the    6206 160460 0.0387     0      0
##  2 Mansfield Park    to     5475 160460 0.0341     0      0
##  3 Mansfield Park    and    5438 160460 0.0339     0      0
##  4 Emma              to     5239 160996 0.0325     0      0
##  5 Emma              the    5201 160996 0.0323     0      0
##  6 Emma              and    4896 160996 0.0304     0      0
##  7 Mansfield Park    of     4778 160460 0.0298     0      0
##  8 Pride & Prejudice the    4331 122204 0.0354     0      0
##  9 Emma              of     4291 160996 0.0267     0      0
## 10 Pride & Prejudice to     4162 122204 0.0341     0      0
## # ... with 40,369 more rows

Trminos con mayor tf-idf 

book_words %>%
  select(-total) %>%
  arrange(desc(tf_idf))

## # A tibble: 40,379 x 6
##    book                word          n      tf   idf  tf_idf
##    <fct>               <chr>     <int>   <dbl> <dbl>   <dbl>
##  1 Sense & Sensibility elinor      623 0.00519  1.79 0.00931
##  2 Sense & Sensibility marianne    492 0.00410  1.79 0.00735
##  3 Mansfield Park      crawford    493 0.00307  1.79 0.00551
##  4 Pride & Prejudice   darcy       373 0.00305  1.79 0.00547
##  5 Persuasion          elliot      254 0.00304  1.79 0.00544
##  6 Emma                emma        786 0.00488  1.10 0.00536
##  7 Northanger Abbey    tilney      196 0.00252  1.79 0.00452
##  8 Emma                weston      389 0.00242  1.79 0.00433
##  9 Pride & Prejudice   bennet      294 0.00241  1.79 0.00431
## 10 Persuasion          wentworth   191 0.00228  1.79 0.00409
## # ... with 40,369 more rows
…
original_books<-original_books %>%
  group_by(book) %>%
  mutate(linenumber = row_number(),
         chapter = cumsum(str_detect(text, regex("^chapter [\\divxlc]",
                                                 ignore_case = TRUE)))) %>%
  ungroup()

Dividir en palabras, quitar stop_words y contar la cantidad de palabras

tidy_books <- original_books %>%
  unnest_tokens(word, text)

tidy_books

## # A tibble: 725,055 x 4
##    book                linenumber chapter word       
##    <fct>                    <int>   <int> <chr>      
##  1 Sense & Sensibility          1       0 sense      
##  2 Sense & Sensibility          1       0 and        
##  3 Sense & Sensibility          1       0 sensibility
##  4 Sense & Sensibility          3       0 by         
##  5 Sense & Sensibility          3       0 jane       
##  6 Sense & Sensibility          3       0 austen     
##  7 Sense & Sensibility          5       0 1811       
##  8 Sense & Sensibility         10       1 chapter    
##  9 Sense & Sensibility         10       1 1          
## 10 Sense & Sensibility         13       1 the        
## # ... with 725,045 more rows

data(stop_words)

tidy_books <- tidy_books %>%
  anti_join(stop_words)

## Joining, by = "word"

tidy_books %>%
  count(word, sort = TRUE) 

## # A tibble: 13,914 x 2
##    word       n
##    <chr>  <int>
##  1 miss    1855
##  2 time    1337
##  3 fanny    862
##  4 dear     822
##  5 lady     817
##  6 sir      806
##  7 day      797
##  8 emma     787
##  9 sister   727
## 10 house    699
## # ... with 13,904 more rows
…
