Analizando Tweets en R
…
Contar frecuencia de palabras en el texto de los tweets

if (!require(tidyverse)) install.packages("tidytext")
library(tidytext)

hmtTable <- rtAI %>% 
   unnest_tokens(word, text)

Hacer tabla de frecuencia por palabras

hmtTable <-hmtTable %>%
  count(word, sort = TRUE) 
hmtTable

## # A tibble: 17,619 x 2
##    word                       n
##    <chr>                  <int>
##  1 t.co                    5618
##  2 https                   5616
##  3 artificialintelligence  4101
##  4 ai                      2947
##  5 the                     2192
##  6 to                      1679
##  7 and                     1293
##  8 of                      1266
##  9 machinelearning         1235
## 10 in                      1168
## # ... with 17,609 more rows
…
